<?xml version="1.0" encoding="UTF-8" standalone="no"?>
<svg
   xmlns:dc="http://purl.org/dc/elements/1.1/"
   xmlns:cc="http://creativecommons.org/ns#"
   xmlns:rdf="http://www.w3.org/1999/02/22-rdf-syntax-ns#"
   xmlns:svg="http://www.w3.org/2000/svg"
   xmlns="http://www.w3.org/2000/svg"
   id="svg26"
   version="1.1"
   height="220.6698"
   width="520.30414">
  <metadata
     id="metadata32">
    <rdf:RDF>
      <cc:Work
         rdf:about="">
        <dc:format>image/svg+xml</dc:format>
        <dc:type
           rdf:resource="http://purl.org/dc/dcmitype/StillImage" />
        <dc:title></dc:title>
      </cc:Work>
    </rdf:RDF>
  </metadata>
  <defs
     id="defs30" />
  <path
     class="link"
     d="m 77.134412,170.20715 c 174.499998,0 174.499998,0 348.999998,0"
     style="fill:none;stroke:#000000;stroke-width:1.5;stroke-miterlimit:4;stroke-dasharray:none;stroke-opacity:0.78431373"
     id="path2" />
  <g
     class="node"
     transform="translate(77.134412,170.20715)"
     id="g10">
    <path
       id="circle6"
       d="M 14.927053,0 A 14.927053,14.927053 0 0 1 0,14.927053 14.927053,14.927053 0 0 1 -14.927053,0 14.927053,14.927053 0 0 1 0,-14.927053 14.927053,14.927053 0 0 1 14.927053,0 Z"
       style="fill:#428bca;stroke-width:1.5px" />
    <g
       id="text8"
       style="font-style:normal;font-variant:normal;font-weight:normal;font-stretch:normal;font-size:21px;line-height:30px;font-family:'Bitstream Vera Sans Mono';-inkscape-font-specification:'Bitstream Vera Sans Mono';dominant-baseline:central;text-anchor:middle;white-space:nowrap;display:block;fill:#ffffff"
       aria-label="0">
      <path
         id="path4870"
         style="font-style:normal;font-variant:normal;font-weight:normal;font-stretch:normal;font-size:21px;line-height:30px;font-family:'Bitstream Vera Sans Mono';-inkscape-font-specification:'Bitstream Vera Sans Mono';dominant-baseline:central;text-anchor:middle;white-space:nowrap;display:block;fill:#ffffff"
         d="m -1.3637695,-0.23535156 q 0,-0.56396485 0.38964841,-0.97412114 0.39990234,-0.4101562 0.95361328,-0.4101562 0.57421875,0 0.984375,0.4101562 0.41015621,0.41015629 0.41015621,0.97412114 0,0.57421875 -0.41015621,0.97412109 -0.39990235,0.39990237 -0.984375,0.39990237 -0.57421875,0 -0.96386719,-0.38964846 -0.3793945,-0.38964844 -0.3793945,-0.984375 z M 0,-6.4902344 q -1.4458008,0 -2.1635742,1.5585938 -0.7075196,1.5585937 -0.7075196,4.74755857 0,3.17871093 0.7075196,4.73730473 Q -1.4458008,6.1118164 0,6.1118164 q 1.4560547,0 2.1635742,-1.5585937 0.7177735,-1.5585938 0.7177735,-4.73730473 0,-3.18896487 -0.7177735,-4.74755857 Q 1.4560547,-6.4902344 0,-6.4902344 Z m 0,-1.640625 q 2.4506836,0 3.7016602,2.0097657 1.2612304,2.0097656 1.2612304,5.93701167 0,3.91699223 -1.2612304,5.92675783 Q 2.4506836,7.7524414 0,7.7524414 q -2.4506836,0 -3.7016602,-2.0097656 -1.2509765,-2.0097656 -1.2509765,-5.92675783 0,-3.92724607 1.2509765,-5.93701167 Q -2.4506836,-8.1308594 0,-8.1308594 Z" />
    </g>
  </g>
  <g
     class="node"
     transform="translate(261.88423,170.20715)"
     id="g16">
    <g
       id="g4519">
      <path
         id="circle12"
         d="M 44.666561,0 A 44.666561,44.666561 0 0 1 0,44.666561 44.666561,44.666561 0 0 1 -44.666561,0 44.666561,44.666561 0 0 1 0,-44.666561 44.666561,44.666561 0 0 1 44.666561,0 Z"
         style="fill:#428bca;stroke-width:1.5px" />
      <g
         id="text14"
         style="font-style:normal;font-variant:normal;font-weight:normal;font-stretch:normal;font-size:21px;line-height:30px;font-family:'Bitstream Vera Sans Mono';-inkscape-font-specification:'Bitstream Vera Sans Mono';dominant-baseline:central;text-anchor:middle;white-space:nowrap;display:block;fill:#ffffff"
         aria-label="1">
        <path
           id="path4866"
           style="font-style:normal;font-variant:normal;font-weight:normal;font-stretch:normal;font-size:21px;line-height:30px;font-family:'Bitstream Vera Sans Mono';-inkscape-font-specification:'Bitstream Vera Sans Mono';dominant-baseline:central;text-anchor:middle;white-space:nowrap;display:block;fill:#ffffff"
           d="M -3.5478516,5.7119141 H -0.328125 V -5.987793 l -3.4658203,0.7792969 v -1.8867187 l 3.44531249,-0.7587891 H 1.7226562 v 13.565918 h 3.178711 v 1.743164 h -8.4492188 z" />
      </g>
    </g>
  </g>
  <g
     transform="translate(-283.20123,-129.79285)"
     id="g4536">
    <g
       id="g22"
       transform="translate(731,300)"
       class="node">
      <path
         id="circle18"
         d="M 50.46265,0 A 50.46265,50.46265 0 0 1 0,50.46265 50.46265,50.46265 0 0 1 -50.46265,0 50.46265,50.46265 0 0 1 0,-50.46265 50.46265,50.46265 0 0 1 50.46265,0 Z"
         style="fill:#428bca;stroke-width:1.5px" />
      <g
         id="text20"
         style="font-style:normal;font-variant:normal;font-weight:normal;font-stretch:normal;font-size:21px;line-height:30px;font-family:'Bitstream Vera Sans Mono';-inkscape-font-specification:'Bitstream Vera Sans Mono';dominant-baseline:central;text-anchor:middle;white-space:nowrap;display:block;fill:#ffffff"
         aria-label="2">
        <path
           id="path4862"
           style="font-style:normal;font-variant:normal;font-weight:normal;font-stretch:normal;font-size:21px;line-height:30px;font-family:'Bitstream Vera Sans Mono';-inkscape-font-specification:'Bitstream Vera Sans Mono';dominant-baseline:central;text-anchor:middle;white-space:nowrap;display:block;fill:#ffffff"
           d="m -2.4916992,5.7119141 h 7.0341797 v 1.743164 h -9.300293 V 5.7119141 Q -2.840332,3.6918945 -1.4047852,2.1435547 0.03076172,0.59521484 0.57421875,-0.04052734 1.5996094,-1.2915039 1.9584961,-2.0605469 q 0.3588867,-0.7792969 0.3588867,-1.5893554 0,-1.2817383 -0.7587891,-2.0097657 -0.74853511,-0.7280273 -2.06103511,-0.7280273 -0.93310549,0 -1.95849609,0.3383789 -1.0253906,0.3383789 -2.1738281,1.0253906 v -2.0917969 q 1.0561523,-0.5024414 2.071289,-0.758789 1.0253907,-0.2563477 2.02001957,-0.2563477 2.24560543,0 3.60937503,1.1997071 1.3740234,1.1894531 1.3740234,3.1274414 0,0.984375 -0.4614258,1.96875 Q 3.5273438,-0.85058594 2.5019531,0.33886719 1.9277344,1.0053711 0.83056641,2.1845703 -0.25634766,3.3637695 -2.4916992,5.7119141 Z" />
      </g>
    </g>
  </g>
  <path
     id="path4538"
     style="fill:none;stroke:#000000;stroke-width:2;stroke-linecap:butt;stroke-linejoin:miter;stroke-miterlimit:4;stroke-dasharray:none;stroke-opacity:1"
     d="m 128.02652,65.972603 v 14.10035 M 26.242292,65.972603 v 14.10035 m -0.0865,-6.64185 H 127.8859" />
  <path
     d="M 128.02652,88.809973 V 102.91032 M 26.242292,88.809973 v 14.100347 m -0.0865,-6.641847 H 127.8859"
     style="fill:none;stroke:#000000;stroke-width:2;stroke-linecap:butt;stroke-linejoin:miter;stroke-miterlimit:4;stroke-dasharray:none;stroke-opacity:1"
     id="path4540" />
  <g
     id="text4550"
     style="font-style:normal;font-weight:normal;font-size:20px;line-height:25px;font-family:sans-serif;letter-spacing:0px;word-spacing:0px;fill:#000000;fill-opacity:1;stroke:none"
     aria-label="A">
    <path
       id="path4858"
       style="font-size:20px"
       d="M 6.6796875,68.643097 4.0039062,75.898956 H 9.3652344 Z M 5.5664062,66.699738 H 7.8027344 L 13.359375,81.279816 H 11.308594 L 9.9804688,77.539581 H 3.4082031 l -1.328125,3.740235 H 0 Z" />
  </g>
  <g
     id="text4554"
     style="font-style:normal;font-weight:normal;font-size:20px;line-height:25px;font-family:sans-serif;letter-spacing:0px;word-spacing:0px;fill:#000000;fill-opacity:1;stroke:none"
     aria-label="B">
    <path
       id="path4855"
       style="font-size:20px"
       d="m 3.7792969,96.538376 v 5.341794 h 3.1640625 q 1.5917969,0 2.3535156,-0.65429 0.771484,-0.66407 0.771484,-2.021489 0,-1.367187 -0.771484,-2.011718 -0.7617187,-0.654297 -2.3535156,-0.654297 z m 0,-5.996094 v 4.394531 h 2.9199218 q 1.4453126,0 2.1484376,-0.537109 0.7128906,-0.546875 0.7128906,-1.660156 0,-1.103516 -0.7128906,-1.650391 -0.703125,-0.546875 -2.1484376,-0.546875 z M 1.8066406,88.921188 h 5.0390625 q 2.2558594,0 3.4765629,0.9375 1.220703,0.9375 1.220703,2.666016 0,1.337891 -0.625,2.128906 -0.625,0.791016 -1.8359377,0.986328 1.4550777,0.3125 2.2558597,1.308594 0.810547,0.986328 0.810547,2.470703 0,1.953125 -1.328125,3.017575 -1.3281255,1.06446 -3.7792974,1.06446 h -5.234375 z" />
  </g>
  <path
     d="m 309.3414,65.972603 v 14.10035 M 207.55717,65.972603 v 14.10035 m -0.0865,-6.64185 h 101.73011"
     style="fill:none;stroke:#000000;stroke-width:2;stroke-linecap:butt;stroke-linejoin:miter;stroke-miterlimit:4;stroke-dasharray:none;stroke-opacity:1"
     id="path4556" />
  <path
     id="path4558"
     style="fill:none;stroke:#000000;stroke-width:2;stroke-linecap:butt;stroke-linejoin:miter;stroke-miterlimit:4;stroke-dasharray:none;stroke-opacity:1"
     d="M 309.3414,88.809973 V 102.91032 M 207.55717,88.809973 v 14.100347 m -0.0865,-6.641847 h 101.73011" />
  <g
     id="text4562"
     style="font-style:normal;font-weight:normal;font-size:20px;line-height:25px;font-family:sans-serif;letter-spacing:0px;word-spacing:0px;fill:#000000;fill-opacity:1;stroke:none"
     aria-label="A">
    <path
       id="path4852"
       style="font-size:20px"
       d="m 187.99455,68.643097 -2.67578,7.255859 h 5.36133 z m -1.11328,-1.943359 h 2.23633 l 5.55664,14.580078 h -2.05078 l -1.32813,-3.740235 h -6.57226 l -1.32813,3.740235 h -2.08007 z" />
  </g>
  <g
     id="text4566"
     style="font-style:normal;font-weight:normal;font-size:20px;line-height:25px;font-family:sans-serif;letter-spacing:0px;word-spacing:0px;fill:#000000;fill-opacity:1;stroke:none"
     aria-label="B">
    <path
       id="path4849"
       style="font-size:20px"
       d="m 185.09416,96.538376 v 5.341794 h 3.16406 q 1.5918,0 2.35352,-0.65429 0.77148,-0.66407 0.77148,-2.021489 0,-1.367187 -0.77148,-2.011718 -0.76172,-0.654297 -2.35352,-0.654297 z m 0,-5.996094 v 4.394531 h 2.91992 q 1.44532,0 2.14844,-0.537109 0.71289,-0.546875 0.71289,-1.660156 0,-1.103516 -0.71289,-1.650391 -0.70312,-0.546875 -2.14844,-0.546875 z m -1.97265,-1.621094 h 5.03906 q 2.25586,0 3.47656,0.9375 1.2207,0.9375 1.2207,2.666016 0,1.337891 -0.625,2.128906 -0.625,0.791016 -1.83593,0.986328 1.45507,0.3125 2.25586,1.308594 0.81054,0.986328 0.81054,2.470703 0,1.953125 -1.32812,3.017575 -1.32813,1.06446 -3.7793,1.06446 h -5.23437 z" />
  </g>
  <path
     id="path4568"
     style="fill:none;stroke:#000000;stroke-width:2;stroke-linecap:butt;stroke-linejoin:miter;stroke-miterlimit:4;stroke-dasharray:none;stroke-opacity:1"
     d="m 309.3414,44.519313 v 14.10035 M 207.55717,44.519313 v 14.10035 m -0.0865,-6.64185 h 101.73011" />
  <g
     id="text4572"
     style="font-style:normal;font-weight:normal;font-size:20px;line-height:25px;font-family:sans-serif;letter-spacing:0px;word-spacing:0px;fill:#000000;fill-opacity:1;stroke:none"
     aria-label="A">
    <path
       id="path4846"
       style="font-size:20px"
       d="m 187.99455,47.189804 -2.67578,7.255859 h 5.36133 z m -1.11328,-1.943359 h 2.23633 l 5.55664,14.580078 h -2.05078 l -1.32813,-3.740235 h -6.57226 l -1.32813,3.740235 h -2.08007 z" />
  </g>
  <path
     id="path4574"
     style="fill:none;stroke:#000000;stroke-width:2;stroke-linecap:butt;stroke-linejoin:miter;stroke-miterlimit:4;stroke-dasharray:none;stroke-opacity:1"
     d="m 502.42098,65.972603 v 14.10035 M 400.63675,65.972603 v 14.10035 m -0.0865,-6.64185 h 101.73011" />
  <path
     d="M 502.42098,88.809973 V 102.91032 M 400.63675,88.809973 v 14.100347 m -0.0865,-6.641847 h 101.73011"
     style="fill:none;stroke:#000000;stroke-width:2;stroke-linecap:butt;stroke-linejoin:miter;stroke-miterlimit:4;stroke-dasharray:none;stroke-opacity:1"
     id="path4576" />
  <g
     id="text4580"
     style="font-style:normal;font-weight:normal;font-size:20px;line-height:25px;font-family:sans-serif;letter-spacing:0px;word-spacing:0px;fill:#000000;fill-opacity:1;stroke:none"
     aria-label="B" />
  <g
     id="text4584"
     style="font-style:normal;font-weight:normal;font-size:20px;line-height:25px;font-family:sans-serif;letter-spacing:0px;word-spacing:0px;fill:#000000;fill-opacity:1;stroke:none"
     aria-label="B" />
  <g
     transform="translate(-159.33272,-123.79285)"
     id="g4624">
    <g
       id="text4596"
       style="font-style:normal;font-weight:normal;font-size:20px;line-height:25px;font-family:sans-serif;letter-spacing:0px;word-spacing:0px;fill:#000000;fill-opacity:1;stroke:none"
       aria-label="(Δ , Δ ) = (+1, 0)">
      <path
         id="path4801"
         style=""
         d="m 327.19116,133.61314 q -1.30859,2.2461 -1.94336,4.44336 -0.63476,2.19727 -0.63476,4.45313 0,2.25586 0.63476,4.47265 0.64453,2.20704 1.94336,4.44336 h -1.5625 q -1.46484,-2.29492 -2.19726,-4.51171 -0.72266,-2.2168 -0.72266,-4.4043 0,-2.17774 0.72266,-4.38477 0.72265,-2.20703 2.19726,-4.51172 z" />
      <path
         id="path4803"
         style=""
         d="m 335.63843,136.15221 -4.00391,10.99609 h 8.01758 z m -6.67969,12.63672 5.56641,-14.58008 h 2.23632 l 5.55665,14.58008 z" />
      <path
         id="path4805"
         style=""
         d="m 351.1853,146.30846 h 2.06055 v 1.67968 l -1.60156,3.125 h -1.25977 l 0.80078,-3.125 z" />
      <path
         id="path4807"
         style=""
         d="m 368.41187,136.15221 -4.00391,10.99609 h 8.01758 z m -6.67969,12.63672 5.5664,-14.58008 h 2.23633 l 5.55664,14.58008 z" />
      <path
         id="path4809"
         style=""
         d="m 383.21655,133.61314 h 1.5625 q 1.46485,2.30469 2.1875,4.51172 0.73242,2.20703 0.73242,4.38477 0,2.1875 -0.73242,4.4043 -0.72265,2.21679 -2.1875,4.51171 h -1.5625 q 1.29883,-2.23632 1.9336,-4.44336 0.64453,-2.21679 0.64453,-4.47265 0,-2.25586 -0.64453,-4.45313 -0.63477,-2.19726 -1.9336,-4.44336 z" />
      <path
         id="path4811"
         style=""
         d="m 397.91382,139.70689 h 12.51953 v 1.64063 h -12.51953 z m 0,3.98438 h 12.51953 v 1.66016 h -12.51953 z" />
      <path
         id="path4813"
         style=""
         d="m 425.12085,133.61314 q -1.30859,2.2461 -1.94336,4.44336 -0.63477,2.19727 -0.63477,4.45313 0,2.25586 0.63477,4.47265 0.64453,2.20704 1.94336,4.44336 h -1.5625 q -1.46484,-2.29492 -2.19727,-4.51171 -0.72265,-2.2168 -0.72265,-4.4043 0,-2.17774 0.72265,-4.38477 0.72266,-2.20703 2.19727,-4.51172 z" />
      <path
         id="path4815"
         style=""
         d="m 435.9314,136.24986 v 5.43946 h 5.43945 v 1.66015 h -5.43945 v 5.43946 h -1.64063 v -5.43946 h -5.43945 v -1.66015 h 5.43945 v -5.43946 z" />
      <path
         id="path4817"
         style=""
         d="m 445.97046,147.12877 h 3.22266 v -11.12305 l -3.50586,0.70313 v -1.79688 l 3.48632,-0.70312 h 1.97266 v 12.91992 h 3.22266 v 1.66016 h -8.39844 z" />
      <path
         id="path4819"
         style=""
         d="m 458.56812,146.30846 h 2.06054 v 1.67968 l -1.60156,3.125 h -1.25977 l 0.80079,-3.125 z" />
      <path
         id="path4821"
         style=""
         d="m 475.31616,135.50768 q -1.52344,0 -2.29492,1.5039 -0.76172,1.49414 -0.76172,4.50195 0,2.99805 0.76172,4.50196 0.77148,1.49414 2.29492,1.49414 1.53321,0 2.29492,-1.49414 0.77149,-1.50391 0.77149,-4.50196 0,-3.00781 -0.77149,-4.50195 -0.76171,-1.5039 -2.29492,-1.5039 z m 0,-1.5625 q 2.45117,0 3.74024,1.94335 1.29882,1.9336 1.29882,5.625 0,3.68165 -1.29882,5.625 -1.28907,1.9336 -3.74024,1.9336 -2.45117,0 -3.75,-1.9336 -1.28906,-1.94335 -1.28906,-5.625 0,-3.6914 1.28906,-5.625 1.29883,-1.94335 3.75,-1.94335 z" />
      <path
         id="path4823"
         style=""
         d="m 483.29468,133.61314 h 1.5625 q 1.46484,2.30469 2.1875,4.51172 0.73242,2.20703 0.73242,4.38477 0,2.1875 -0.73242,4.4043 -0.72266,2.21679 -2.1875,4.51171 h -1.5625 q 1.29883,-2.23632 1.93359,-4.44336 0.64453,-2.21679 0.64453,-4.47265 0,-2.25586 -0.64453,-4.45313 -0.63476,-2.19726 -1.93359,-4.44336 z" />
    </g>
    <g
       id="text4608"
       style="font-style:normal;font-weight:normal;font-size:20px;line-height:25px;font-family:sans-serif;letter-spacing:0px;word-spacing:0px;fill:#000000;fill-opacity:1;stroke:none"
       aria-label="(B)">
      <path
         id="path4826"
         style="font-size:13.33333302px;letter-spacing:-2.06999993px"
         d="m 372.95812,123.79285 q -0.8724,1.49739 -1.29557,2.96224 -0.42318,1.46484 -0.42318,2.96875 0,1.5039 0.42318,2.98177 0.42968,1.47135 1.29557,2.96224 h -1.04167 q -0.97656,-1.52995 -1.46484,-3.00782 -0.48177,-1.47786 -0.48177,-2.93619 0,-1.45183 0.48177,-2.92318 0.48177,-1.47135 1.46484,-3.00781 z" />
      <path
         id="path4828"
         style="font-size:13.33333302px;letter-spacing:-2.06999993px"
         d="m 374.58604,129.26811 v 3.5612 h 2.10937 q 1.0612,0 1.56901,-0.4362 0.51432,-0.44271 0.51432,-1.34766 0,-0.91146 -0.51432,-1.34114 -0.50781,-0.4362 -1.56901,-0.4362 z m 0,-3.9974 v 2.92969 h 1.94661 q 0.96354,0 1.43229,-0.35807 0.47526,-0.36459 0.47526,-1.10677 0,-0.73568 -0.47526,-1.10027 -0.46875,-0.36458 -1.43229,-0.36458 z m -1.31511,-1.08073 h 3.35938 q 1.5039,0 2.31771,0.625 0.8138,0.625 0.8138,1.77735 0,0.89192 -0.41667,1.41927 -0.41667,0.52734 -1.22396,0.65755 0.97005,0.20833 1.50391,0.87239 0.54036,0.65756 0.54036,1.64714 0,1.30208 -0.88541,2.01172 -0.88542,0.70963 -2.51953,0.70963 h -3.48959 z" />
      <path
         id="path4830"
         style="font-size:13.33333302px;letter-spacing:-2.06999993px"
         d="m 380.10067,123.79285 h 1.04167 q 0.97656,1.53646 1.45833,3.00781 0.48828,1.47135 0.48828,2.92318 0,1.45833 -0.48828,2.93619 -0.48177,1.47787 -1.45833,3.00782 h -1.04167 q 0.86589,-1.49089 1.28906,-2.96224 0.42969,-1.47787 0.42969,-2.98177 0,-1.50391 -0.42969,-2.96875 -0.42317,-1.46485 -1.28906,-2.96224 z" />
    </g>
    <g
       id="text4612"
       style="font-style:normal;font-weight:normal;font-size:20px;line-height:25px;font-family:sans-serif;letter-spacing:0px;word-spacing:0px;fill:#000000;fill-opacity:1;stroke:none"
       aria-label="(A)">
      <path
         id="path4833"
         style="font-size:13.33333302px;letter-spacing:-1.24000001px"
         d="m 341.47024,123.79285 q -0.8724,1.49739 -1.29558,2.96224 -0.42317,1.46484 -0.42317,2.96875 0,1.5039 0.42317,2.98177 0.42969,1.47135 1.29558,2.96224 h -1.04167 q -0.97656,-1.52995 -1.46485,-3.00782 -0.48177,-1.47786 -0.48177,-2.93619 0,-1.45183 0.48177,-2.92318 0.48178,-1.47135 1.46485,-3.00781 z" />
      <path
         id="path4835"
         style="font-size:13.33333302px;letter-spacing:-1.24000001px"
         d="m 345.86175,125.48556 -1.78386,4.83723 h 3.57422 z m -0.74219,-1.29558 h 1.49088 l 3.70443,9.72005 h -1.36719 l -0.88541,-2.49349 h -4.38151 l -0.88542,2.49349 h -1.38672 z" />
      <path
         id="path4837"
         style="font-size:13.33333302px;letter-spacing:-1.24000001px"
         d="m 350.24675,123.79285 h 1.04166 q 0.97656,1.53646 1.45834,3.00781 0.48828,1.47135 0.48828,2.92318 0,1.45833 -0.48828,2.93619 -0.48178,1.47787 -1.45834,3.00782 h -1.04166 q 0.86588,-1.49089 1.28906,-2.96224 0.42969,-1.47787 0.42969,-2.98177 0,-1.50391 -0.42969,-2.96875 -0.42318,-1.46485 -1.28906,-2.96224 z" />
    </g>
  </g>
  <g
     transform="translate(42.058282,-123.79285)"
     id="g4638">
    <g
       id="text4628"
       style="font-style:normal;font-weight:normal;font-size:20px;line-height:25px;font-family:sans-serif;letter-spacing:0px;word-spacing:0px;fill:#000000;fill-opacity:1;stroke:none"
       aria-label="(Δ , Δ ) = (0, -1)">
      <path
         id="path4762"
         style=""
         d="m 327.19116,133.61314 q -1.30859,2.2461 -1.94336,4.44336 -0.63476,2.19727 -0.63476,4.45313 0,2.25586 0.63476,4.47265 0.64453,2.20704 1.94336,4.44336 h -1.5625 q -1.46484,-2.29492 -2.19726,-4.51171 -0.72266,-2.2168 -0.72266,-4.4043 0,-2.17774 0.72266,-4.38477 0.72265,-2.20703 2.19726,-4.51172 z" />
      <path
         id="path4764"
         style=""
         d="m 335.63843,136.15221 -4.00391,10.99609 h 8.01758 z m -6.67969,12.63672 5.56641,-14.58008 h 2.23632 l 5.55665,14.58008 z" />
      <path
         id="path4766"
         style=""
         d="m 351.1853,146.30846 h 2.06055 v 1.67968 l -1.60156,3.125 h -1.25977 l 0.80078,-3.125 z" />
      <path
         id="path4768"
         style=""
         d="m 368.41187,136.15221 -4.00391,10.99609 h 8.01758 z m -6.67969,12.63672 5.5664,-14.58008 h 2.23633 l 5.55664,14.58008 z" />
      <path
         id="path4770"
         style=""
         d="m 383.21655,133.61314 h 1.5625 q 1.46485,2.30469 2.1875,4.51172 0.73242,2.20703 0.73242,4.38477 0,2.1875 -0.73242,4.4043 -0.72265,2.21679 -2.1875,4.51171 h -1.5625 q 1.29883,-2.23632 1.9336,-4.44336 0.64453,-2.21679 0.64453,-4.47265 0,-2.25586 -0.64453,-4.45313 -0.63477,-2.19726 -1.9336,-4.44336 z" />
      <path
         id="path4772"
         style=""
         d="m 397.91382,139.70689 h 12.51953 v 1.64063 h -12.51953 z m 0,3.98438 h 12.51953 v 1.66016 h -12.51953 z" />
      <path
         id="path4774"
         style=""
         d="m 425.12085,133.61314 q -1.30859,2.2461 -1.94336,4.44336 -0.63477,2.19727 -0.63477,4.45313 0,2.25586 0.63477,4.47265 0.64453,2.20704 1.94336,4.44336 h -1.5625 q -1.46484,-2.29492 -2.19727,-4.51171 -0.72265,-2.2168 -0.72265,-4.4043 0,-2.17774 0.72265,-4.38477 0.72266,-2.20703 2.19727,-4.51172 z" />
      <path
         id="path4776"
         style=""
         d="m 433.0896,135.50768 q -1.52344,0 -2.29492,1.5039 -0.76172,1.49414 -0.76172,4.50195 0,2.99805 0.76172,4.50196 0.77148,1.49414 2.29492,1.49414 1.5332,0 2.29492,-1.49414 0.77149,-1.50391 0.77149,-4.50196 0,-3.00781 -0.77149,-4.50195 -0.76172,-1.5039 -2.29492,-1.5039 z m 0,-1.5625 q 2.45117,0 3.74023,1.94335 1.29883,1.9336 1.29883,5.625 0,3.68165 -1.29883,5.625 -1.28906,1.9336 -3.74023,1.9336 -2.45117,0 -3.75,-1.9336 -1.28906,-1.94335 -1.28906,-5.625 0,-3.6914 1.28906,-5.625 1.29883,-1.94335 3.75,-1.94335 z" />
      <path
         id="path4778"
         style=""
         d="m 441.8103,146.30846 h 2.06055 v 1.67968 l -1.60156,3.125 h -1.25977 l 0.80078,-3.125 z" />
      <path
         id="path4780"
         style=""
         d="m 453.17749,142.50963 h 5.26367 v 1.60156 h -5.26367 z" />
      <path
         id="path4782"
         style=""
         d="m 461.90796,147.12877 h 3.22266 v -11.12305 l -3.50586,0.70313 v -1.79688 l 3.48632,-0.70312 h 1.97266 v 12.91992 h 3.22266 v 1.66016 h -8.39844 z" />
      <path
         id="path4784"
         style=""
         d="m 473.76343,133.61314 h 1.5625 q 1.46484,2.30469 2.1875,4.51172 0.73242,2.20703 0.73242,4.38477 0,2.1875 -0.73242,4.4043 -0.72266,2.21679 -2.1875,4.51171 h -1.5625 q 1.29883,-2.23632 1.93359,-4.44336 0.64453,-2.21679 0.64453,-4.47265 0,-2.25586 -0.64453,-4.45313 -0.63476,-2.19726 -1.93359,-4.44336 z" />
    </g>
    <g
       id="text4632"
       style="font-style:normal;font-weight:normal;font-size:20px;line-height:25px;font-family:sans-serif;letter-spacing:0px;word-spacing:0px;fill:#000000;fill-opacity:1;stroke:none"
       aria-label="(B)">
      <path
         id="path4787"
         style="font-size:13.33333302px;letter-spacing:-2.06999993px"
         d="m 372.95812,123.79285 q -0.8724,1.49739 -1.29557,2.96224 -0.42318,1.46484 -0.42318,2.96875 0,1.5039 0.42318,2.98177 0.42968,1.47135 1.29557,2.96224 h -1.04167 q -0.97656,-1.52995 -1.46484,-3.00782 -0.48177,-1.47786 -0.48177,-2.93619 0,-1.45183 0.48177,-2.92318 0.48177,-1.47135 1.46484,-3.00781 z" />
      <path
         id="path4789"
         style="font-size:13.33333302px;letter-spacing:-2.06999993px"
         d="m 374.58604,129.26811 v 3.5612 h 2.10937 q 1.0612,0 1.56901,-0.4362 0.51432,-0.44271 0.51432,-1.34766 0,-0.91146 -0.51432,-1.34114 -0.50781,-0.4362 -1.56901,-0.4362 z m 0,-3.9974 v 2.92969 h 1.94661 q 0.96354,0 1.43229,-0.35807 0.47526,-0.36459 0.47526,-1.10677 0,-0.73568 -0.47526,-1.10027 -0.46875,-0.36458 -1.43229,-0.36458 z m -1.31511,-1.08073 h 3.35938 q 1.5039,0 2.31771,0.625 0.8138,0.625 0.8138,1.77735 0,0.89192 -0.41667,1.41927 -0.41667,0.52734 -1.22396,0.65755 0.97005,0.20833 1.50391,0.87239 0.54036,0.65756 0.54036,1.64714 0,1.30208 -0.88541,2.01172 -0.88542,0.70963 -2.51953,0.70963 h -3.48959 z" />
      <path
         id="path4791"
         style="font-size:13.33333302px;letter-spacing:-2.06999993px"
         d="m 380.10067,123.79285 h 1.04167 q 0.97656,1.53646 1.45833,3.00781 0.48828,1.47135 0.48828,2.92318 0,1.45833 -0.48828,2.93619 -0.48177,1.47787 -1.45833,3.00782 h -1.04167 q 0.86589,-1.49089 1.28906,-2.96224 0.42969,-1.47787 0.42969,-2.98177 0,-1.50391 -0.42969,-2.96875 -0.42317,-1.46485 -1.28906,-2.96224 z" />
    </g>
    <g
       id="text4636"
       style="font-style:normal;font-weight:normal;font-size:20px;line-height:25px;font-family:sans-serif;letter-spacing:0px;word-spacing:0px;fill:#000000;fill-opacity:1;stroke:none"
       aria-label="(A)">
      <path
         id="path4794"
         style="font-size:13.33333302px;letter-spacing:-1.24000001px"
         d="m 341.47024,123.79285 q -0.8724,1.49739 -1.29558,2.96224 -0.42317,1.46484 -0.42317,2.96875 0,1.5039 0.42317,2.98177 0.42969,1.47135 1.29558,2.96224 h -1.04167 q -0.97656,-1.52995 -1.46485,-3.00782 -0.48177,-1.47786 -0.48177,-2.93619 0,-1.45183 0.48177,-2.92318 0.48178,-1.47135 1.46485,-3.00781 z" />
      <path
         id="path4796"
         style="font-size:13.33333302px;letter-spacing:-1.24000001px"
         d="m 345.86175,125.48556 -1.78386,4.83723 h 3.57422 z m -0.74219,-1.29558 h 1.49088 l 3.70443,9.72005 h -1.36719 l -0.88541,-2.49349 h -4.38151 l -0.88542,2.49349 h -1.38672 z" />
      <path
         id="path4798"
         style="font-size:13.33333302px;letter-spacing:-1.24000001px"
         d="m 350.24675,123.79285 h 1.04166 q 0.97656,1.53646 1.45834,3.00781 0.48828,1.47135 0.48828,2.92318 0,1.45833 -0.48828,2.93619 -0.48178,1.47787 -1.45834,3.00782 h -1.04166 q 0.86588,-1.49089 1.28906,-2.96224 0.42969,-1.47787 0.42969,-2.98177 0,-1.50391 -0.42969,-2.96875 -0.42318,-1.46485 -1.28906,-2.96224 z" />
    </g>
  </g>
  <path
     id="path4852-3"
     style="font-style:normal;font-weight:normal;font-size:20px;line-height:25px;font-family:sans-serif;letter-spacing:0px;word-spacing:0px;fill:#000000;fill-opacity:1;stroke:none"
     d="m 387.11628,89.777549 -2.67578,7.255859 h 5.36133 z M 386.003,87.83419 h 2.23633 l 5.55664,14.58008 h -2.05078 l -1.32813,-3.740237 h -6.57226 l -1.32813,3.740237 h -2.08007 z" />
  <path
     id="path4846-6"
     style="font-style:normal;font-weight:normal;font-size:20px;line-height:25px;font-family:sans-serif;letter-spacing:0px;word-spacing:0px;fill:#000000;fill-opacity:1;stroke:none"
     d="m 387.11628,68.324256 -2.67578,7.255859 h 5.36133 z M 386.003,66.380897 h 2.23633 l 5.55664,14.580078 h -2.05078 l -1.32813,-3.740235 h -6.57226 l -1.32813,3.740235 h -2.08007 z" />
</svg>
